<?xml version="1.0" encoding="iso-8859-1"?>
<!-- Generator: Adobe Illustrator 19.0.0, SVG Export Plug-In . SVG Version: 6.00 Build 0)  -->
<svg version="1.1" id="Capa_1" xmlns="http://www.w3.org/2000/svg" xmlns:xlink="http://www.w3.org/1999/xlink" x="0px" y="0px"
	 viewBox="0 0 512 512" style="enable-background:new 0 0 512 512;" xml:space="preserve">
<g>
	<g>
		<path style="fill:#2C3E50;" d="M26.483,388.414h44.138v35.31c0,9.751-7.904,17.655-17.655,17.655h-8.828
			c-9.751,0-17.655-7.904-17.655-17.655V388.414z"/>
		<path style="fill:#2C3E50;" d="M441.379,388.414h44.138v35.31c0,9.751-7.905,17.655-17.655,17.655h-8.828
			c-9.751,0-17.655-7.904-17.655-17.655V388.414z"/>
		<path style="fill:#2C3E50;" d="M507.984,183.033L431.669,81.22c-5.001-6.672-12.853-10.599-21.191-10.599H101.519
			c-8.337,0-16.187,3.926-21.188,10.595L3.986,183.033H507.984z"/>
	</g>
	<path style="fill:#35495E;" d="M17.655,176.552h476.69c9.751,0,17.655,7.904,17.655,17.655v194.207
		c0,9.751-7.905,17.655-17.655,17.655H17.655C7.904,406.069,0,398.164,0,388.414V194.207C0,184.456,7.904,176.552,17.655,176.552z"
		/>
	<path style="fill:#14A085;" d="M388.414,238.345v105.931c0,9.751-7.904,17.655-17.655,17.655H52.966
		c-9.751,0-17.655-7.904-17.655-17.655V238.345c0-9.751,7.904-17.655,17.655-17.655h317.793
		C380.509,220.69,388.414,228.594,388.414,238.345z"/>
	<g>
		<path style="fill:#E6E7E8;" d="M432.552,247.172c-0.564-0.016-1.126-0.075-1.681-0.177c-0.583-0.085-1.147-0.264-1.672-0.53
			c-0.565-0.194-1.101-0.462-1.595-0.797c-0.44-0.35-0.879-0.703-1.319-1.056c-3.414-3.481-3.414-9.054,0-12.534l1.319-1.06
			c0.494-0.335,1.03-0.604,1.595-0.797c0.524-0.267,1.09-0.445,1.672-0.526c2.881-0.58,5.862,0.314,7.948,2.383
			c0.353,0.44,0.707,0.879,1.06,1.41c0.347,0.452,0.615,0.959,0.793,1.5c0.269,0.526,0.447,1.095,0.526,1.681
			c0.107,0.553,0.168,1.114,0.181,1.677c-0.018,0.591-0.078,1.18-0.181,1.763c-0.093,0.554-0.27,1.09-0.526,1.59
			c-0.194,0.562-0.461,1.097-0.793,1.591c-0.353,0.44-0.707,0.879-1.06,1.323c-0.44,0.353-0.888,0.707-1.328,1.056
			c-0.491,0.335-1.024,0.603-1.586,0.797c-0.528,0.266-1.096,0.445-1.681,0.53C433.672,247.097,433.113,247.156,432.552,247.172z"/>
		<path style="fill:#E6E7E8;" d="M467.862,247.172c-4.163-0.041-7.72-3.011-8.502-7.1s1.427-8.162,5.281-9.736
			c3.854-1.574,8.283-0.213,10.588,3.255c2.304,3.467,1.844,8.078-1.1,11.022c-0.44,0.353-0.888,0.707-1.328,1.056
			c-0.491,0.335-1.024,0.603-1.586,0.797c-0.5,0.252-1.035,0.431-1.586,0.53C469.045,247.097,468.455,247.156,467.862,247.172z"/>
		<path style="fill:#E6E7E8;" d="M432.552,282.483c-0.564-0.016-1.126-0.075-1.681-0.177c-0.583-0.085-1.147-0.264-1.672-0.53
			c-0.565-0.194-1.101-0.462-1.595-0.797c-0.44-0.35-0.879-0.703-1.319-1.056c-3.414-3.481-3.414-9.054,0-12.534l1.319-1.06
			c0.494-0.335,1.03-0.604,1.595-0.797c0.524-0.267,1.09-0.445,1.672-0.526c2.881-0.58,5.862,0.314,7.948,2.383
			c0.353,0.44,0.707,0.879,1.06,1.409c0.347,0.452,0.615,0.959,0.793,1.5c0.269,0.526,0.447,1.095,0.526,1.681
			c0.107,0.553,0.168,1.114,0.181,1.677c-0.018,0.591-0.078,1.18-0.181,1.763c-0.093,0.554-0.27,1.09-0.526,1.59
			c-0.194,0.562-0.461,1.097-0.793,1.591c-0.353,0.44-0.707,0.879-1.06,1.323c-0.44,0.353-0.888,0.707-1.328,1.056
			c-0.491,0.335-1.024,0.603-1.586,0.797c-0.528,0.266-1.096,0.445-1.681,0.53C433.672,282.408,433.113,282.467,432.552,282.483z"/>
		<path style="fill:#E6E7E8;" d="M467.862,282.483c-2.337-0.035-4.575-0.949-6.268-2.56c-0.798-0.844-1.427-1.833-1.854-2.914
			c-0.497-1.047-0.739-2.196-0.706-3.354c0.014-0.593,0.072-1.183,0.172-1.767c0.1-0.553,0.28-1.089,0.534-1.59
			c0.192-0.562,0.458-1.096,0.793-1.586c0.326-0.463,0.68-0.905,1.06-1.324c3.539-3.267,8.995-3.267,12.534,0
			c0.353,0.44,0.707,0.879,1.06,1.323c0.331,0.492,0.598,1.026,0.793,1.586c0.256,0.5,0.433,1.036,0.526,1.59
			c0.108,0.583,0.168,1.175,0.181,1.768c-0.014,1.153-0.254,2.293-0.707,3.353c-0.448,1.07-1.075,2.055-1.854,2.914
			C472.445,281.546,470.202,282.463,467.862,282.483z"/>
		<path style="fill:#E6E7E8;" d="M467.862,317.793h-35.31c-4.875,0-8.828-3.952-8.828-8.828s3.952-8.828,8.828-8.828h35.31
			c4.875,0,8.828,3.952,8.828,8.828S472.737,317.793,467.862,317.793z"/>
		<path style="fill:#E6E7E8;" d="M467.862,353.103h-35.31c-4.875,0-8.828-3.952-8.828-8.828s3.952-8.828,8.828-8.828h35.31
			c4.875,0,8.828,3.952,8.828,8.828S472.737,353.103,467.862,353.103z"/>
	</g>
	<ellipse style="fill:#ECF0F1;" cx="150.069" cy="123.586" rx="26.483" ry="17.655"/>
	<ellipse style="fill:#BDC3C7;" cx="256" cy="123.586" rx="26.483" ry="17.655"/>
	<ellipse style="fill:#ECF0F1;" cx="361.931" cy="123.586" rx="26.483" ry="17.655"/>
	<g>
		<path style="fill:#7ED09E;" d="M97.103,335.448H79.448c-9.746-0.011-17.644-7.909-17.655-17.655v-52.966
			c0.011-9.746,7.909-17.644,17.655-17.655h17.655c9.746,0.011,17.644,7.909,17.655,17.655v52.966
			C114.747,327.539,106.85,335.437,97.103,335.448z M79.448,264.828v52.966h17.664l-0.009-52.966H79.448z"/>
		<path style="fill:#7ED09E;" d="M105.931,300.138h-35.31c-4.875,0-8.828-3.952-8.828-8.828s3.952-8.828,8.828-8.828h35.31
			c4.875,0,8.828,3.952,8.828,8.828S110.806,300.138,105.931,300.138z"/>
		<path style="fill:#7ED09E;" d="M167.724,335.448h-17.655c-9.746-0.011-17.644-7.909-17.655-17.655v-52.966
			c0.011-9.746,7.909-17.644,17.655-17.655h17.655c9.746,0.011,17.644,7.909,17.655,17.655v52.966
			C185.368,327.539,177.47,335.437,167.724,335.448z M150.069,264.828v52.966h17.664l-0.009-52.966H150.069z"/>
		<path style="fill:#7ED09E;" d="M176.552,300.138h-35.31c-4.875,0-8.828-3.952-8.828-8.828s3.952-8.828,8.828-8.828h35.31
			c4.875,0,8.828,3.952,8.828,8.828S181.427,300.138,176.552,300.138z"/>
		<path style="fill:#7ED09E;" d="M273.655,335.448H256c-9.746-0.011-17.644-7.909-17.655-17.655v-52.966
			c0.011-9.746,7.909-17.644,17.655-17.655h17.655c9.746,0.011,17.644,7.909,17.655,17.655v52.966
			C291.299,327.539,283.401,335.437,273.655,335.448z M256,264.828v52.966h17.664l-0.009-52.966H256z"/>
		<path style="fill:#7ED09E;" d="M282.483,300.138h-35.31c-4.875,0-8.828-3.952-8.828-8.828s3.952-8.828,8.828-8.828h35.31
			c4.875,0,8.828,3.952,8.828,8.828S287.358,300.138,282.483,300.138z"/>
		<path style="fill:#7ED09E;" d="M344.276,335.448h-17.655c-9.746-0.011-17.644-7.909-17.655-17.655v-52.966
			c0.011-9.746,7.909-17.644,17.655-17.655h17.655c9.746,0.011,17.644,7.909,17.655,17.655v52.966
			C361.92,327.539,354.022,335.437,344.276,335.448z M326.621,264.828v52.966h17.664l-0.009-52.966H326.621z"/>
		<path style="fill:#7ED09E;" d="M353.103,300.138h-35.31c-4.875,0-8.828-3.952-8.828-8.828s3.952-8.828,8.828-8.828h35.31
			c4.875,0,8.828,3.952,8.828,8.828S357.979,300.138,353.103,300.138z"/>
		<path style="fill:#7ED09E;" d="M211.862,282.483c-2.348,0.023-4.607-0.9-6.267-2.56c-1.66-1.66-2.583-3.919-2.56-6.267
			c0.03-3.561,2.186-6.76,5.475-8.126c3.289-1.366,7.076-0.634,9.62,1.858c3.414,3.481,3.414,9.054,0,12.534
			c-0.44,0.353-0.888,0.707-1.414,1.056c-0.45,0.351-0.958,0.62-1.5,0.797c-0.528,0.266-1.096,0.445-1.681,0.53
			C212.983,282.407,212.423,282.466,211.862,282.483z"/>
		<path style="fill:#7ED09E;" d="M211.862,317.793c-1.153-0.014-2.293-0.254-3.353-0.707c-3.359-1.294-5.575-4.523-5.575-8.123
			s2.216-6.828,5.575-8.123c3.293-1.33,7.06-0.603,9.621,1.857c2.546,2.525,3.312,6.341,1.937,9.653
			C218.691,315.663,215.448,317.814,211.862,317.793z"/>
	</g>
</g>
<g>
</g>
<g>
</g>
<g>
</g>
<g>
</g>
<g>
</g>
<g>
</g>
<g>
</g>
<g>
</g>
<g>
</g>
<g>
</g>
<g>
</g>
<g>
</g>
<g>
</g>
<g>
</g>
<g>
</g>
</svg>
