<?xml version="1.0" encoding="iso-8859-1"?>
<!-- Generator: Adobe Illustrator 19.0.0, SVG Export Plug-In . SVG Version: 6.00 Build 0)  -->
<svg version="1.1" id="Capa_1" xmlns="http://www.w3.org/2000/svg" xmlns:xlink="http://www.w3.org/1999/xlink" x="0px" y="0px"
	 viewBox="0 0 512 512" style="enable-background:new 0 0 512 512;" xml:space="preserve">
<g>
	<path style="fill:#35495E;" d="M419.928,203.034h8.21c21.939,0,39.724-17.785,39.724-39.724s-17.785-39.724-39.724-39.724H83.862
		c-21.939,0-39.724,17.785-39.724,39.724s17.785,39.724,39.724,39.724H419.928z"/>
	<g>
		<path style="fill:#2C3E50;" d="M52.966,450.207h52.966v44.138c0,9.751-7.904,17.655-17.655,17.655H70.621
			c-9.751,0-17.655-7.904-17.655-17.655V450.207z"/>
		<path style="fill:#2C3E50;" d="M406.069,450.207h52.966v44.138c0,9.751-7.905,17.655-17.655,17.655h-17.655
			c-9.751,0-17.655-7.904-17.655-17.655V450.207z"/>
	</g>
	<path style="fill:#35495E;" d="M44.138,370.759h423.724c9.751,0,17.655,7.904,17.655,17.655v44.138
		c0,24.377-19.761,44.138-44.138,44.138H70.621c-24.377,0-44.138-19.761-44.138-44.138v-44.138
		C26.483,378.663,34.387,370.759,44.138,370.759z"/>
	<circle style="fill:#E6E7E8;" cx="397.241" cy="423.724" r="17.655"/>
	<g>
		<path style="fill:#B0D3F0;" d="M79.448,432.552c-1.155-0.014-2.296-0.254-3.358-0.707c-1.068-0.449-2.051-1.076-2.91-1.853
			c-1.612-1.692-2.527-3.931-2.56-6.268c0.018-0.592,0.077-1.183,0.177-1.767c0.095-0.554,0.272-1.09,0.526-1.59
			c0.195-0.561,0.463-1.095,0.797-1.586c0.353-0.444,0.707-0.884,1.06-1.323c0.857-0.78,1.841-1.409,2.909-1.858
			c1.611-0.702,3.401-0.886,5.121-0.526c0.554,0.095,1.09,0.272,1.59,0.526c0.563,0.194,1.098,0.462,1.591,0.797
			c0.44,0.353,0.879,0.707,1.323,1.06c0.353,0.44,0.707,0.879,1.056,1.323c0.334,0.491,0.603,1.025,0.797,1.586
			c0.253,0.501,0.432,1.037,0.53,1.59c0.097,0.585,0.156,1.175,0.177,1.767c-0.035,2.337-0.949,4.574-2.56,6.268
			c-0.444,0.353-0.884,0.707-1.323,1.056c-0.492,0.335-1.027,0.603-1.591,0.797c-0.501,0.253-1.037,0.432-1.59,0.53
			C80.628,432.473,80.039,432.531,79.448,432.552z"/>
		<path style="fill:#B0D3F0;" d="M114.759,432.552c-0.593-0.016-1.183-0.075-1.767-0.177c-0.553-0.098-1.089-0.277-1.59-0.53
			c-0.562-0.195-1.095-0.463-1.586-0.797c-0.444-0.349-0.884-0.703-1.323-1.056c-1.612-1.692-2.527-3.93-2.56-6.267
			c0.018-0.592,0.077-1.183,0.177-1.767c0.095-0.554,0.272-1.09,0.526-1.59c0.195-0.561,0.463-1.095,0.797-1.586
			c0.353-0.444,0.707-0.884,1.06-1.323c0.44-0.353,0.879-0.707,1.323-1.06c0.491-0.334,1.025-0.603,1.586-0.797
			c0.501-0.254,1.037-0.431,1.591-0.526c1.162-0.267,2.369-0.267,3.53,0c0.554,0.095,1.09,0.272,1.59,0.526
			c0.563,0.194,1.098,0.462,1.591,0.797c0.44,0.353,0.879,0.707,1.323,1.06c0.353,0.44,0.707,0.879,1.056,1.323
			c0.334,0.491,0.603,1.025,0.797,1.586c0.253,0.501,0.432,1.037,0.53,1.59c0.097,0.585,0.156,1.175,0.177,1.767
			c-0.035,2.337-0.949,4.574-2.56,6.268c-0.444,0.353-0.884,0.707-1.323,1.056c-0.492,0.335-1.027,0.603-1.591,0.797
			c-0.501,0.253-1.037,0.432-1.59,0.53C115.939,432.473,115.35,432.531,114.759,432.552z"/>
	</g>
	<rect x="220.69" y="331.652" style="fill:#2C3E50;" width="70.621" height="39.106"/>
	<path style="fill:#D1D4D1;" d="M423.724,167.724c0,9.649-0.857,19.28-2.56,28.778c-1.087,6.847-2.681,13.604-4.767,20.215
		c-1.842,6.212-4.113,12.288-6.797,18.185c-2.405,5.721-5.207,11.266-8.386,16.596c-2.934,5.24-6.207,10.282-9.799,15.095
		c-3.47,4.826-7.244,9.426-11.299,13.771c-3.888,4.432-8.076,8.591-12.535,12.447c-4.352,3.994-8.951,7.709-13.771,11.123
		c-4.882,3.554-9.983,6.797-15.272,9.71c-5.382,3.169-10.988,5.943-16.772,8.298c-5.921,2.651-12.028,4.863-18.273,6.621
		c-6.655,2.016-13.438,3.579-20.303,4.679c-8.99,1.454-18.082,2.192-27.189,2.207c-8.691-0.004-17.368-0.683-25.953-2.03
		c-6.891-1.041-13.703-2.545-20.392-4.502c-6.317-1.766-12.509-3.949-18.538-6.533c-5.73-2.379-11.303-5.121-16.684-8.21
		c-5.323-2.871-10.454-6.085-15.36-9.622c-4.851-3.378-9.481-7.063-13.859-11.034h-0.088c-8.843-7.781-16.833-16.481-23.834-25.953
		c-3.618-4.801-6.949-9.813-9.975-15.007c-3.162-5.309-5.964-10.823-8.386-16.508c-2.766-5.913-5.096-12.021-6.974-18.273v-0.088
		c-2.115-6.459-3.738-13.069-4.855-19.774c-1.883-9.953-2.829-20.06-2.825-30.19c0.015-9.107,0.753-18.199,2.207-27.189
		c1.087-6.905,2.681-13.72,4.767-20.392c1.757-6.331,3.969-12.526,6.621-18.538c2.41-5.732,5.181-11.304,8.298-16.684
		c2.935-5.22,6.177-10.26,9.71-15.095c3.465-4.861,7.209-9.518,11.211-13.948c3.932-4.418,8.118-8.603,12.535-12.535
		c4.316-4.026,8.886-7.771,13.683-11.211c4.835-3.533,9.876-6.775,15.095-9.71c5.289-3.196,10.807-5.999,16.508-8.386
		c5.919-2.679,12.026-4.922,18.273-6.709c6.54-2.127,13.241-3.721,20.039-4.767c19.33-3.443,39.119-3.413,58.439,0.088
		c6.783,1.159,13.478,2.781,20.039,4.855h0.088c6.151,1.887,12.167,4.188,18.008,6.886c5.701,2.387,11.218,5.19,16.508,8.386h0.088
		c5.193,2.996,10.204,6.298,15.007,9.887h0.088c4.748,3.498,9.287,7.271,13.595,11.299c4.382,3.911,8.51,8.098,12.359,12.535
		c3.971,4.379,7.657,9.008,11.034,13.859c3.594,4.904,6.867,10.034,9.799,15.36c3.088,5.382,5.83,10.954,8.21,16.684
		c2.597,5.993,4.78,12.157,6.532,18.45c2.028,6.676,3.562,13.491,4.59,20.392C423.026,149.997,423.735,158.854,423.724,167.724z"/>
	<path style="fill:#A5A5A4;" d="M412.513,187.939c-0.257-0.18-0.493-0.387-0.706-0.618l-18.097-18.097l17.39-17.479l0.088-0.088
		l0.662-0.662c0.2-0.167,0.448-0.235,0.636-0.422c0.187-0.188,0.255-0.436,0.423-0.636l0.751-0.751l7.945-7.945
		c-1.028-6.901-2.562-13.716-4.59-20.392l-10.88,10.88l-12.483-12.499l16.831-16.831c-2.38-5.73-5.122-11.303-8.21-16.684
		l-21.01,21.01l-0.051,0.051l-12.527-12.543l0.043-0.043l23.746-23.834c-3.378-4.851-7.064-9.48-11.034-13.859l-25.159,25.247
		l-0.035,0.035l-12.412-12.427v-0.055l25.247-25.335c-4.307-4.028-8.846-7.801-13.595-11.299h-0.088l-24.08,24.256l-12.491-12.491
		l0.024-0.024l21.451-21.628c-5.289-3.197-10.807-6-16.508-8.386l-17.459,17.547l-12.491-12.491l0.025-0.024l11.829-11.917
		c-6.561-2.074-13.256-3.696-20.039-4.855l-10.505,10.593l-18.714,18.714l-17.92-18.008c-0.177-0.177-0.265-0.353-0.441-0.441
		c-0.175-0.087-0.177-0.175-0.262-0.262l-0.067-0.068L227.222,2.56c-6.797,1.045-13.499,2.64-20.039,4.767l11.975,12.063
		L206.6,31.902l-0.034-0.034L188.91,14.036c-5.701,2.387-11.218,5.19-16.508,8.386l21.784,21.961l-12.359,12.359l-24.52-24.609
		c-4.796,3.44-9.367,7.185-13.683,11.211l25.757,25.845l-12.535,12.535L131.09,55.879c-4.003,4.429-7.746,9.086-11.211,13.948
		l24.276,24.541l0.025,0.025l-12.314,12.314l-21.696-21.785c-3.117,5.38-5.888,10.953-8.298,16.684l17.479,17.567l0.025,0.025
		l-12.623,12.623l-0.025-0.025L95.25,120.143c-2.086,6.671-3.68,13.487-4.767,20.392l9.887,9.975
		c0.286,0.21,0.552,0.447,0.794,0.706l18.185,18.273l-16.772,16.861l-0.466,0.477c-1.368,0.576-2.445,1.679-2.99,3.06l-0.34,0.348
		l-7.68,7.68c1.117,6.704,2.74,13.314,4.855,19.774l10.77-10.858l0.026-0.027l12.623,12.624l-0.026,0.026L102.93,236.05
		c2.423,5.684,5.224,11.199,8.386,16.508l20.568-20.568l0.026-0.026l12.359,12.359l-0.026,0.026l-22.952,23.217
		c3.468,4.747,7.211,9.286,11.211,13.594l24.099-24.452l0.026-0.026l12.535,12.535l-0.026,0.026l-23.923,24.276
		c4.379,3.971,9.008,7.657,13.859,11.034l22.599-22.775l0.026-0.026l12.447,12.447l-0.026,0.027l-19.686,19.95
		c5.381,3.088,10.954,5.83,16.684,8.21l15.537-15.625l0.026-0.027l12.535,12.535l-0.026,0.026l-9.534,9.622
		c6.688,1.957,13.501,3.461,20.392,4.502l7.857-7.945l18.626-18.891h0.088l17.39,17.39l0.265,0.265l0.487,0.487
		c0.167,0.199,0.234,0.447,0.421,0.634c0.187,0.187,0.435,0.254,0.634,0.421l0.754,0.755l6.621,6.709
		c6.866-1.1,13.649-2.663,20.303-4.679l-9.534-9.445v-0.061l12.454-12.468l15.353,15.353c5.785-2.355,11.39-5.128,16.772-8.298
		l-19.597-19.509l-0.045-0.045l12.484-12.498l0.007,0.007l22.422,22.334c4.82-3.414,9.419-7.129,13.771-11.123l-23.716-23.716
		l12.484-12.498l0.021,0.021v0.088l23.746,23.658c4.055-4.346,7.829-8.945,11.299-13.771l-22.51-22.422l-0.035-0.034l12.38-12.426
		l0.013,0.013h0.088l19.862,19.774c3.179-5.329,5.982-10.875,8.386-16.596l-15.713-15.713l-0.035-0.035l12.467-12.515l0.015,0.015
		l10.063,10.063c2.086-6.611,3.68-13.368,4.767-20.215l-8.563-8.563H412.513z M393.71,194.207l0.036,0.036l-12.468,12.514
		l-12.55-12.55l12.447-12.535L393.71,194.207z M356.296,231.739l-0.015-0.015l-12.447-12.535l12.359-12.447h0.088l12.447,12.447
		l0.036,0.036L356.296,231.739z M331.37,256.618h-0.071l-12.359-12.447l12.359-12.447l12.475,12.475L331.37,256.618z
		 M256.441,281.688l-12.359-12.535l12.359-12.447l12.447,12.447L256.441,281.688z M169.313,194.383l12.535-12.535l12.27,12.27
		l-12.535,12.535L169.313,194.383z M206.541,57.002l0.024,0.025l12.447,12.447l-12.27,12.27l-12.447-12.447l-0.024-0.024
		L206.541,57.002z M243.994,69.385L256.53,56.85l12.359,12.535L256.441,81.92l-12.447-12.447V69.385z M293.959,94.367
		l-12.535,12.359l-12.359-12.359l12.447-12.535L293.959,94.367z M331.365,81.854l12.41,12.425h-0.029l-12.447,12.535l-12.447-12.447
		L331.365,81.854z M343.746,144.243l-12.447,12.535l-12.447-12.535l12.359-12.447h0.088L343.746,144.243z M368.728,169.225
		l-12.447,12.535l-12.535-12.447v-0.088l12.447-12.447h0.088L368.728,169.225z M331.299,206.654l-12.447-12.447l12.447-12.447
		l12.447,12.447L331.299,206.654z M256.441,231.724l-12.447-12.447l12.447-12.535l12.535,12.447L256.441,231.724z M194.295,169.313
		l12.359-12.447l12.359,12.359v0.088l-12.447,12.359L194.295,169.313z M219.189,119.172v0.088l-12.447,12.447l-12.535-12.535
		l12.535-12.447L219.189,119.172z M256.53,106.814l12.447,12.535l-12.359,12.359l-12.447-12.447L256.53,106.814z M281.512,156.69
		h-0.088l-12.359-12.447l12.359-12.359l12.447,12.447L281.512,156.69z M268.977,169.225l-12.447,12.359l-12.447-12.359v-0.088
		l12.535-12.447l12.359,12.447V169.225z M231.548,206.654l-12.447-12.447l12.447-12.447l12.447,12.447L231.548,206.654z
		 M244.083,144.154v0.088l-12.447,12.359l-12.359-12.359l12.447-12.535L244.083,144.154z M194.119,144.419l-12.359,12.359
		l-12.535-12.623l12.359-12.359L194.119,144.419z M269.065,194.119l12.359-12.447l12.535,12.535l-12.447,12.447L269.065,194.119z
		 M293.959,169.137l12.359-12.359l12.447,12.535l-12.359,12.359L293.959,169.137z M318.764,119.261l-12.447,12.535l-12.447-12.447
		v-0.088l12.447-12.359h0.088L318.764,119.261z M243.906,94.367l-12.27,12.359L219.189,94.19l12.27-12.27L243.906,94.367z
		 M181.848,81.743l12.447,12.447v0.088l-12.447,12.447L169.401,94.19l-0.024-0.024l12.447-12.447L181.848,81.743z M156.69,106.902
		l12.535,12.535l-12.359,12.359l-12.535-12.535l-0.024-0.024l12.359-12.359L156.69,106.902z M169.313,169.313v0.088l-12.535,12.447
		l-12.623-12.623l12.623-12.623L169.313,169.313z M194.03,219.277l12.535-12.623l12.447,12.535v0.088l-12.535,12.447L194.03,219.277
		z M219.101,244.171l12.359-12.359l12.535,12.447l-12.447,12.447h-0.088L219.101,244.171z M268.977,244.259l12.447-12.623h0.088
		l12.447,12.535l-12.535,12.535h-0.088L268.977,244.259z M293.959,219.189v-0.088l12.447-12.447l12.447,12.535l-12.447,12.447
		L293.959,219.189z M381.175,156.69l-12.447-12.447l12.447-12.447v-0.074l12.476,12.491L381.175,156.69z M368.728,119.261
		l-12.447,12.535h-0.088l-12.447-12.535l12.447-12.535l0.007-0.007L368.728,119.261z M318.788,69.361l-0.024,0.024l-12.359,12.359
		l-12.359-12.359l12.27-12.447l0.024-0.024L318.788,69.361z M281.335,31.956l0.024-0.024l12.535,12.535l-0.024,0.024l-12.447,12.447
		l-12.359-12.535L281.335,31.956z M231.459,56.938l-12.418-12.506l12.434-12.387h0.072l12.359,12.359L231.459,56.938z
		 M119.261,144.419v-0.088l-0.024-0.024l12.623-12.623l0.024,0.024v0.088l12.535,12.535l-12.535,12.623L119.261,144.419z
		 M119.146,194.233l0.026-0.026l12.447-12.447l12.712,12.712l-12.447,12.447l-0.026,0.026L119.146,194.233z M144.305,219.391
		l0.026-0.026l12.447-12.447l12.359,12.359l-12.359,12.535l-0.026,0.026L144.305,219.391z M169.111,244.197l0.026-0.026
		l12.447-12.359l12.359,12.359v0.088l-12.27,12.447l-0.026,0.026L169.111,244.197z M194.093,269.179l0.026-0.026l12.359-12.535
		h0.088l12.447,12.535l-12.359,12.535l-0.026,0.026L194.093,269.179z M231.636,306.67l-0.026,0.026l-12.535-12.535l0.026-0.026
		l12.359-12.535h0.088l12.359,12.535L231.636,306.67z M281.423,281.688l12.447,12.447l0.014,0.014l-12.439,12.454l-0.022-0.021
		v-0.088l-12.359-12.359L281.423,281.688z M306.412,281.606l-0.007-0.006h-0.088l-12.359-12.447l12.447-12.535h0.088l12.359,12.447
		l0.043,0.043L306.412,281.606z"/>
</g>
<g>
</g>
<g>
</g>
<g>
</g>
<g>
</g>
<g>
</g>
<g>
</g>
<g>
</g>
<g>
</g>
<g>
</g>
<g>
</g>
<g>
</g>
<g>
</g>
<g>
</g>
<g>
</g>
<g>
</g>
</svg>
