<?xml version="1.0" encoding="iso-8859-1"?>
<!-- Generator: Adobe Illustrator 19.0.0, SVG Export Plug-In . SVG Version: 6.00 Build 0)  -->
<svg version="1.1" id="Capa_1" xmlns="http://www.w3.org/2000/svg" xmlns:xlink="http://www.w3.org/1999/xlink" x="0px" y="0px"
	 viewBox="0 0 512 512" style="enable-background:new 0 0 512 512;" xml:space="preserve">
<g>
	<g>
		<path style="fill:#7F8C8D;" d="M97.103,459.034h35.31v44.138c0,4.875-3.952,8.828-8.828,8.828h-17.655
			c-4.875,0-8.828-3.952-8.828-8.828V459.034z"/>
		<path style="fill:#7F8C8D;" d="M379.586,459.034h35.31v44.138c0,4.875-3.952,8.828-8.828,8.828h-17.655
			c-4.875,0-8.828-3.952-8.828-8.828V459.034z"/>
	</g>
	<path style="fill:#A5A5A4;" d="M88.276,0h335.448c9.751,0,17.655,7.904,17.655,17.655v441.379c0,9.751-7.904,17.655-17.655,17.655
		H88.276c-9.751,0-17.655-7.905-17.655-17.655V17.655C70.621,7.904,78.525,0,88.276,0z"/>
	<g>
		<path style="fill:#D1D4D1;" d="M441.379,17.655V291.31H70.621V17.655C70.649,7.916,78.537,0.028,88.276,0h335.448
			C433.463,0.028,441.351,7.916,441.379,17.655z"/>
		<path style="fill:#D1D4D1;" d="M114.759,476.69l15.612-117.092c1.169-8.771,8.651-15.322,17.5-15.322h216.258
			c8.849,0,16.331,6.551,17.5,15.322l15.612,117.092"/>
	</g>
	<circle style="fill:#95A5A5;" cx="194.207" cy="414.897" r="26.483"/>
	<path style="fill:#7F8C8D;" d="M194.207,406.069c-4.875,0-8.828-3.952-8.828-8.828v-17.655c0-4.875,3.952-8.828,8.828-8.828
		s8.828,3.952,8.828,8.828v17.655C203.034,402.117,199.082,406.069,194.207,406.069z"/>
	<circle style="fill:#95A5A5;" cx="317.793" cy="414.897" r="26.483"/>
	<path style="fill:#7F8C8D;" d="M317.793,406.069c-4.875,0-8.828-3.952-8.828-8.828v-17.655c0-4.875,3.952-8.828,8.828-8.828
		s8.828,3.952,8.828,8.828v17.655C326.621,402.117,322.668,406.069,317.793,406.069z"/>
	<path style="fill:#F29C1F;" d="M256,61.793c0,0-61.793,77.427-61.793,110.61c-1.091,35.253,26.544,64.743,61.793,65.942
		c35.249-1.199,62.885-30.689,61.793-65.942C317.793,139.22,256,61.793,256,61.793z"/>
	<path style="fill:#F0C419;" d="M255.994,238.345c-14.6,0-26.476-14.949-26.476-33.322c0.754-8.492,11.618-30.504,26.459-54.954
		c14.863,24.525,25.744,46.663,26.506,55.427C282.47,223.395,270.593,238.345,255.994,238.345z"/>
</g>
<g>
</g>
<g>
</g>
<g>
</g>
<g>
</g>
<g>
</g>
<g>
</g>
<g>
</g>
<g>
</g>
<g>
</g>
<g>
</g>
<g>
</g>
<g>
</g>
<g>
</g>
<g>
</g>
<g>
</g>
</svg>
