<?xml version="1.0" encoding="iso-8859-1"?>
<!-- Generator: Adobe Illustrator 19.0.0, SVG Export Plug-In . SVG Version: 6.00 Build 0)  -->
<svg version="1.1" id="Capa_1" xmlns="http://www.w3.org/2000/svg" xmlns:xlink="http://www.w3.org/1999/xlink" x="0px" y="0px"
	 viewBox="0 0 512 512" style="enable-background:new 0 0 512 512;" xml:space="preserve">
<g>
	<path style="fill:#BDC3C7;" d="M450.207,414.897h44.138c9.751,0,17.655,7.905,17.655,17.655s-7.904,17.655-17.655,17.655h-44.138
		V414.897z"/>
	<g>
		<path style="fill:#14A085;" d="M26.483,467.862h70.621v26.483c0,9.751-7.904,17.655-17.655,17.655h-35.31
			c-9.751,0-17.655-7.905-17.655-17.655V467.862z"/>
		<path style="fill:#14A085;" d="M370.759,467.862h70.621v26.483c0,9.751-7.905,17.655-17.655,17.655h-35.31
			c-9.751,0-17.655-7.905-17.655-17.655V467.862z"/>
	</g>
	<path style="fill:#26B99A;" d="M459.034,167.724v291.31c-0.029,9.739-7.916,17.627-17.655,17.655H17.655
		C7.916,476.661,0.029,468.773,0,459.035v-291.31c-0.003-9.366,3.717-18.349,10.339-24.971c6.623-6.623,15.605-10.342,24.971-10.339
		h388.414c9.366-0.003,18.349,3.717,24.971,10.339C455.318,149.376,459.037,158.358,459.034,167.724z"/>
	<circle style="fill:#ECF0F1;" cx="344.276" cy="361.931" r="44.138"/>
	<g>
		<path style="fill:#BDC3C7;" d="M344.276,291.31c-0.593-0.016-1.183-0.075-1.767-0.177c-0.552-0.098-1.086-0.277-1.586-0.53
			c-0.565-0.194-1.101-0.462-1.595-0.797c-0.44-0.35-0.879-0.703-1.319-1.056c-1.614-1.691-2.529-3.93-2.56-6.268
			c0.019-0.592,0.076-1.183,0.172-1.767c0.1-0.553,0.28-1.089,0.534-1.59c0.192-0.562,0.458-1.096,0.793-1.586
			c0.326-0.463,0.68-0.905,1.06-1.324l1.319-1.06c0.494-0.335,1.03-0.604,1.595-0.797c0.499-0.254,1.034-0.431,1.587-0.526
			c2.905-0.536,5.892,0.35,8.035,2.383c3.414,3.481,3.414,9.054,0,12.534c-0.44,0.353-0.888,0.707-1.414,1.056
			c-0.45,0.351-0.958,0.62-1.5,0.797c-0.528,0.266-1.096,0.445-1.681,0.53C345.396,291.235,344.837,291.294,344.276,291.31z"/>
		<path style="fill:#BDC3C7;" d="M344.276,450.207c-0.593-0.016-1.183-0.075-1.767-0.177c-0.552-0.098-1.086-0.277-1.586-0.53
			c-0.565-0.194-1.101-0.462-1.595-0.797c-0.44-0.35-0.879-0.703-1.319-1.056c-1.614-1.691-2.529-3.93-2.56-6.268
			c0.019-0.592,0.076-1.183,0.172-1.767c0.1-0.553,0.28-1.089,0.534-1.59c0.192-0.562,0.458-1.096,0.793-1.586
			c0.326-0.463,0.68-0.905,1.06-1.324l1.319-1.06c0.494-0.335,1.03-0.604,1.595-0.797c0.499-0.254,1.034-0.431,1.587-0.526
			c3.82-0.763,7.69,1.057,9.537,4.487c1.847,3.429,1.237,7.663-1.502,10.432c-0.44,0.353-0.888,0.707-1.414,1.056
			c-0.45,0.351-0.958,0.62-1.5,0.797c-0.528,0.266-1.096,0.445-1.681,0.53C345.396,450.132,344.837,450.191,344.276,450.207z"/>
		<path style="fill:#BDC3C7;" d="M288.129,314.612c-2.362,0.008-4.626-0.947-6.268-2.647c-3.414-3.447-3.414-9.001,0-12.448
			c0.809-0.823,1.769-1.482,2.828-1.939c1.631-0.629,3.406-0.783,5.121-0.444c0.57,0.097,1.13,0.245,1.672,0.444
			c0.534,0.263,1.06,0.53,1.5,0.793c0.5,0.31,0.948,0.697,1.328,1.147c0.406,0.42,0.788,0.862,1.147,1.323
			c0.267,0.53,0.534,0.974,0.793,1.504c0.181,0.53,0.353,1.147,0.535,1.677c0.1,0.583,0.158,1.172,0.172,1.763
			c-0.014,0.563-0.072,1.123-0.172,1.677c-0.181,0.621-0.353,1.151-0.535,1.681c-0.259,0.526-0.526,1.056-0.793,1.5
			c-0.311,0.498-0.698,0.944-1.147,1.323c-0.38,0.449-0.828,0.836-1.328,1.147c-0.44,0.267-0.965,0.53-1.5,0.797
			c-0.526,0.172-1.06,0.349-1.672,0.526C289.256,314.539,288.693,314.598,288.129,314.612z"/>
		<path style="fill:#BDC3C7;" d="M400.414,426.901c-1.147,0.017-2.287-0.193-3.354-0.616c-1.056-0.461-2.013-1.121-2.819-1.944
			c-1.696-1.626-2.655-3.874-2.655-6.224c0-2.35,0.959-4.598,2.655-6.224c0.782-0.85,1.746-1.513,2.819-1.94
			c3.309-1.31,7.078-0.55,9.621,1.94c3.414,3.447,3.414,9.001,0,12.448C405.022,426.003,402.762,426.926,400.414,426.901z"/>
		<path style="fill:#BDC3C7;" d="M264.828,370.759c-2.34-0.017-4.585-0.933-6.268-2.56c-0.779-0.859-1.406-1.844-1.854-2.914
			c-0.452-1.061-0.692-2.2-0.706-3.354c0.031-2.338,0.945-4.577,2.56-6.268l1.319-1.06c0.494-0.335,1.03-0.604,1.595-0.797
			c0.499-0.254,1.034-0.431,1.586-0.526c1.131-0.267,2.309-0.267,3.44,0c0.586,0.081,1.154,0.259,1.681,0.526
			c0.542,0.177,1.05,0.447,1.5,0.797c0.526,0.353,0.974,0.707,1.414,1.06c1.611,1.693,2.526,3.931,2.56,6.267
			c-0.014,1.153-0.254,2.293-0.707,3.353c-0.448,1.07-1.074,2.055-1.854,2.914c-0.433,0.401-0.907,0.755-1.414,1.056
			c-0.45,0.351-0.958,0.62-1.5,0.797c-0.528,0.266-1.096,0.445-1.681,0.53C265.948,370.683,265.389,370.742,264.828,370.759z"/>
		<path style="fill:#BDC3C7;" d="M423.724,370.759c-2.337-0.035-4.575-0.949-6.268-2.56c-0.378-0.421-0.732-0.862-1.06-1.323
			c-0.336-0.492-0.603-1.027-0.793-1.591c-0.255-0.501-0.435-1.037-0.535-1.59c-0.23-1.165-0.23-2.365,0-3.53
			c0.1-0.553,0.28-1.089,0.535-1.59c0.192-0.562,0.458-1.096,0.793-1.586c0.326-0.463,0.68-0.905,1.06-1.324
			c3.539-3.267,8.995-3.267,12.534,0c1.626,1.684,2.542,3.927,2.561,6.268c0.023,2.348-0.9,4.607-2.56,6.267
			C428.331,369.859,426.072,370.781,423.724,370.759z"/>
		<path style="fill:#BDC3C7;" d="M288.129,426.901c-2.351,0.04-4.617-0.885-6.268-2.56c-0.822-0.808-1.48-1.767-1.939-2.824
			c-0.418-1.1-0.628-2.268-0.621-3.444c-0.021-2.322,0.903-4.553,2.56-6.181c2.09-2.066,5.055-2.988,7.948-2.47
			c0.612,0.177,1.147,0.353,1.672,0.53c0.534,0.263,1.06,0.53,1.5,0.793c0.5,0.31,0.948,0.697,1.328,1.147
			c0.448,0.381,0.835,0.829,1.147,1.328c0.267,0.44,0.534,0.97,0.793,1.5c0.181,0.53,0.353,1.056,0.535,1.677
			c0.1,0.554,0.158,1.114,0.172,1.677c-0.023,1.182-0.263,2.349-0.707,3.444c-0.428,1.074-1.09,2.039-1.94,2.823
			c-0.38,0.449-0.828,0.836-1.328,1.147c-0.44,0.267-0.965,0.53-1.5,0.797c-0.543,0.197-1.103,0.344-1.672,0.44
			C289.263,426.87,288.695,426.93,288.129,426.901z"/>
		<path style="fill:#BDC3C7;" d="M400.414,314.612c-1.153-0.013-2.292-0.251-3.354-0.703c-1.074-0.428-2.037-1.093-2.819-1.944
			c-1.696-1.626-2.655-3.874-2.655-6.224c0-2.35,0.959-4.598,2.655-6.224c0.805-0.823,1.763-1.482,2.819-1.94
			c3.309-1.31,7.078-0.55,9.621,1.94c3.414,3.447,3.414,9.001,0,12.448C405.031,313.652,402.773,314.605,400.414,314.612z"/>
	</g>
	<path style="fill:#CBB292;" d="M432.552,39.724c-0.033,21.925-17.799,39.691-39.724,39.724h-4.414
		c-14.626,0-26.483,11.857-26.483,26.483s11.857,26.483,26.483,26.483H61.793c14.626,0,26.483-11.857,26.483-26.483
		S76.419,79.448,61.793,79.448h-4.414c-21.939,0-39.724-17.785-39.724-39.724S35.44,0,57.379,0h335.448
		c10.54-0.014,20.652,4.167,28.105,11.619C428.385,19.072,432.566,29.184,432.552,39.724z"/>
	<g>
		<path style="fill:#7F6E5D;" d="M79.448,44.138c-2.348,0.023-4.607-0.9-6.267-2.56c-1.66-1.66-2.583-3.919-2.56-6.267
			c0.031-2.338,0.945-4.577,2.56-6.268c2.09-2.058,5.062-2.95,7.94-2.383c0.586,0.081,1.154,0.259,1.681,0.526
			c0.542,0.177,1.05,0.447,1.5,0.797c0.507,0.303,0.982,0.658,1.415,1.06c3.414,3.481,3.414,9.054,0,12.534
			c-0.44,0.353-0.888,0.707-1.414,1.056c-0.45,0.351-0.958,0.62-1.5,0.797c-0.528,0.266-1.096,0.445-1.681,0.53
			C80.569,44.062,80.01,44.122,79.448,44.138z"/>
		<path style="fill:#7F6E5D;" d="M114.759,44.138c-2.348,0.023-4.607-0.9-6.267-2.56c-1.66-1.66-2.583-3.919-2.56-6.267
			c0.023-3.984,2.713-7.46,6.564-8.481c3.851-1.022,7.91,0.663,9.905,4.112c1.995,3.449,1.432,7.807-1.374,10.636
			c-0.44,0.353-0.888,0.707-1.414,1.056c-0.45,0.351-0.958,0.62-1.5,0.797c-0.528,0.266-1.096,0.445-1.681,0.53
			C115.879,44.063,115.32,44.122,114.759,44.138z"/>
		<path style="fill:#7F6E5D;" d="M114.759,79.448c-2.348,0.023-4.607-0.9-6.267-2.56c-1.66-1.66-2.583-3.919-2.56-6.267
			c0.014-1.155,0.254-2.296,0.707-3.358c0.426-1.08,1.055-2.067,1.853-2.91c3.461-3.461,9.074-3.461,12.535,0
			c3.461,3.461,3.461,9.074,0,12.535c-0.433,0.401-0.907,0.755-1.414,1.056c-0.45,0.351-0.958,0.62-1.5,0.797
			c-0.528,0.266-1.096,0.445-1.681,0.53C115.879,79.373,115.32,79.432,114.759,79.448z"/>
		<path style="fill:#7F6E5D;" d="M150.069,44.138c-0.593-0.016-1.183-0.075-1.767-0.177c-0.552-0.098-1.086-0.277-1.586-0.53
			c-0.565-0.194-1.101-0.462-1.595-0.797c-0.461-0.324-0.902-0.677-1.319-1.056c-3.414-3.481-3.414-9.054,0-12.534
			c2.525-2.546,6.34-3.312,9.652-1.937c3.312,1.375,5.463,4.617,5.443,8.204c0.023,2.348-0.9,4.607-2.56,6.267
			C154.676,43.238,152.417,44.161,150.069,44.138z"/>
		<path style="fill:#7F6E5D;" d="M150.069,79.448c-0.593-0.016-1.183-0.075-1.767-0.177c-0.552-0.098-1.086-0.277-1.586-0.53
			c-0.565-0.194-1.101-0.462-1.595-0.797c-0.461-0.324-0.902-0.677-1.319-1.056c-3.055-2.995-3.562-7.734-1.212-11.308
			c2.351-3.575,6.902-4.986,10.863-3.368c3.961,1.618,6.223,5.812,5.399,10.01C158.027,76.42,154.347,79.448,150.069,79.448z"/>
		<path style="fill:#7F6E5D;" d="M150.069,114.759c-0.593-0.016-1.183-0.075-1.767-0.177c-0.552-0.098-1.086-0.277-1.586-0.53
			c-0.565-0.194-1.101-0.462-1.595-0.797c-0.461-0.324-0.902-0.677-1.319-1.056c-3.055-2.995-3.562-7.734-1.212-11.308
			c2.351-3.575,6.902-4.986,10.863-3.368c3.961,1.618,6.223,5.812,5.399,10.01C158.027,111.73,154.347,114.758,150.069,114.759z"/>
		<path style="fill:#7F6E5D;" d="M185.379,44.138c-1.153-0.014-2.293-0.254-3.353-0.707c-1.08-0.427-2.069-1.056-2.914-1.853
			c-0.378-0.421-0.732-0.862-1.06-1.323c-0.336-0.492-0.603-1.027-0.793-1.591c-0.255-0.501-0.435-1.037-0.535-1.59
			c-0.142-0.576-0.2-1.17-0.172-1.763c-0.009-2.346,0.911-4.599,2.56-6.268c0.844-0.8,1.833-1.43,2.914-1.858
			c1.611-0.703,3.401-0.887,5.121-0.526c0.552,0.096,1.086,0.273,1.586,0.526c0.562,0.194,1.095,0.462,1.586,0.797
			c0.44,0.353,0.888,0.707,1.328,1.06c1.611,1.693,2.526,3.931,2.56,6.267c-0.013,0.592-0.074,1.181-0.181,1.763
			c-0.093,0.554-0.27,1.09-0.526,1.59c-0.194,0.562-0.461,1.097-0.793,1.591c-0.353,0.44-0.707,0.879-1.06,1.323
			C189.962,43.202,187.719,44.118,185.379,44.138z"/>
		<path style="fill:#7F6E5D;" d="M185.379,79.448c-1.153-0.014-2.293-0.254-3.353-0.707c-1.08-0.427-2.069-1.056-2.914-1.853
			c-0.378-0.421-0.732-0.862-1.06-1.323c-0.336-0.492-0.603-1.027-0.793-1.591c-0.255-0.501-0.435-1.037-0.535-1.59
			c-0.142-0.576-0.2-1.17-0.172-1.763c-0.009-2.346,0.911-4.599,2.56-6.268c0.844-0.8,1.833-1.43,2.914-1.858
			c3.289-1.375,7.081-0.642,9.621,1.858c1.611,1.693,2.525,3.931,2.56,6.268c-0.013,0.592-0.074,1.181-0.181,1.763
			c-0.093,0.554-0.27,1.09-0.526,1.59c-0.194,0.562-0.461,1.097-0.793,1.591c-0.353,0.44-0.707,0.879-1.06,1.323
			C189.962,78.512,187.719,79.428,185.379,79.448z"/>
		<path style="fill:#7F6E5D;" d="M185.379,114.759c-1.153-0.014-2.293-0.254-3.353-0.707c-1.08-0.428-2.069-1.057-2.914-1.854
			c-0.378-0.421-0.732-0.862-1.06-1.323c-0.336-0.492-0.603-1.027-0.793-1.591c-0.255-0.501-0.435-1.037-0.535-1.59
			c-0.143-0.576-0.201-1.17-0.172-1.763c-0.009-2.346,0.911-4.599,2.56-6.268c0.844-0.8,1.833-1.43,2.914-1.858
			c3.289-1.375,7.081-0.642,9.621,1.858c1.611,1.693,2.525,3.931,2.56,6.268c-0.013,0.592-0.074,1.181-0.181,1.763
			c-0.093,0.554-0.27,1.09-0.526,1.59c-0.194,0.562-0.461,1.097-0.793,1.591c-0.353,0.44-0.707,0.879-1.06,1.323
			c-0.44,0.353-0.888,0.707-1.328,1.056c-0.491,0.335-1.024,0.603-1.586,0.797c-0.5,0.252-1.035,0.431-1.586,0.53
			C186.562,114.679,185.972,114.738,185.379,114.759z"/>
		<path style="fill:#7F6E5D;" d="M264.828,44.138c-2.34-0.017-4.585-0.933-6.268-2.56c-0.779-0.859-1.406-1.844-1.854-2.914
			c-0.452-1.061-0.692-2.2-0.706-3.354c0.014-0.592,0.072-1.183,0.172-1.767c0.1-0.553,0.28-1.089,0.535-1.59
			c0.191-0.562,0.458-1.096,0.793-1.586c0.326-0.463,0.68-0.905,1.06-1.324c2.083-2.07,5.061-2.964,7.94-2.383
			c0.586,0.081,1.154,0.259,1.681,0.526c0.542,0.177,1.05,0.447,1.5,0.797c0.507,0.303,0.982,0.658,1.415,1.06
			c1.611,1.693,2.525,3.931,2.56,6.268c-0.014,1.153-0.254,2.293-0.707,3.353c-0.448,1.07-1.074,2.055-1.854,2.914
			c-0.433,0.401-0.907,0.755-1.414,1.056c-0.45,0.351-0.958,0.62-1.5,0.797c-0.528,0.266-1.096,0.445-1.681,0.53
			C265.948,44.063,265.389,44.122,264.828,44.138z"/>
		<path style="fill:#7F6E5D;" d="M264.828,79.448c-2.34-0.017-4.585-0.933-6.268-2.56c-0.779-0.859-1.406-1.844-1.854-2.914
			c-0.452-1.061-0.692-2.2-0.706-3.354c0.014-0.592,0.072-1.183,0.172-1.767c0.1-0.553,0.28-1.089,0.535-1.59
			c0.191-0.562,0.458-1.096,0.793-1.586c0.326-0.463,0.68-0.905,1.06-1.324c2.083-2.07,5.061-2.964,7.94-2.383
			c0.586,0.081,1.154,0.259,1.681,0.526c0.542,0.177,1.05,0.447,1.5,0.797c0.507,0.303,0.982,0.658,1.415,1.06
			c1.611,1.693,2.525,3.931,2.56,6.268c-0.014,1.153-0.254,2.293-0.707,3.353c-0.448,1.07-1.074,2.055-1.854,2.914
			c-0.433,0.401-0.907,0.755-1.414,1.056c-0.45,0.351-0.958,0.62-1.5,0.797c-0.528,0.266-1.096,0.445-1.681,0.53
			C265.948,79.373,265.389,79.432,264.828,79.448z"/>
		<path style="fill:#7F6E5D;" d="M264.828,114.759c-2.34-0.017-4.585-0.933-6.268-2.56c-0.779-0.859-1.406-1.844-1.854-2.914
			c-0.452-1.061-0.692-2.2-0.706-3.354c0.014-0.592,0.072-1.183,0.172-1.767c0.1-0.553,0.28-1.089,0.535-1.59
			c0.191-0.562,0.458-1.096,0.793-1.586c0.326-0.463,0.68-0.905,1.06-1.324c2.083-2.07,5.061-2.964,7.94-2.383
			c0.586,0.081,1.154,0.259,1.681,0.526c0.542,0.177,1.05,0.447,1.5,0.797c0.526,0.353,0.974,0.707,1.414,1.06
			c1.612,1.693,2.526,3.931,2.561,6.267c-0.014,1.153-0.254,2.293-0.707,3.353c-0.448,1.07-1.074,2.055-1.854,2.914
			c-0.433,0.401-0.907,0.755-1.414,1.056c-0.45,0.351-0.958,0.62-1.5,0.797c-0.528,0.266-1.096,0.445-1.681,0.53
			C265.948,114.683,265.389,114.742,264.828,114.759z"/>
		<path style="fill:#7F6E5D;" d="M370.759,44.138c-2.348,0.023-4.607-0.9-6.267-2.56c-1.66-1.66-2.583-3.919-2.56-6.267
			c0.031-2.338,0.945-4.577,2.56-6.268c0.844-0.8,1.833-1.43,2.914-1.858c3.292-1.34,7.065-0.611,9.621,1.858
			c3.414,3.481,3.414,9.054,0,12.534C375.333,43.187,373.095,44.102,370.759,44.138z"/>
		<path style="fill:#7F6E5D;" d="M335.448,44.138c-0.593-0.016-1.183-0.075-1.767-0.177c-0.552-0.098-1.086-0.277-1.586-0.53
			c-0.565-0.194-1.101-0.462-1.595-0.797c-0.44-0.35-0.879-0.703-1.319-1.056c-3.414-3.481-3.414-9.054,0-12.534l1.319-1.06
			c0.494-0.335,1.03-0.604,1.595-0.797c0.499-0.254,1.034-0.432,1.587-0.526c2.601-0.554,5.313,0.102,7.372,1.784
			c2.06,1.682,3.245,4.208,3.222,6.867c-0.035,2.337-0.949,4.574-2.56,6.268c-0.44,0.353-0.888,0.707-1.414,1.056
			c-0.45,0.351-0.958,0.62-1.5,0.797c-0.528,0.266-1.096,0.445-1.681,0.53C336.569,44.063,336.01,44.122,335.448,44.138z"/>
		<path style="fill:#7F6E5D;" d="M335.448,79.448c-0.593-0.016-1.183-0.075-1.767-0.177c-0.552-0.098-1.086-0.277-1.586-0.53
			c-0.565-0.194-1.101-0.462-1.595-0.797c-0.44-0.35-0.879-0.703-1.319-1.056c-0.798-0.844-1.427-1.833-1.854-2.914
			c-0.452-1.061-0.692-2.2-0.706-3.354c0.015-0.592,0.072-1.183,0.172-1.767c0.1-0.553,0.28-1.089,0.534-1.59
			c0.191-0.562,0.458-1.096,0.793-1.586c0.326-0.463,0.68-0.905,1.06-1.324l1.319-1.06c0.494-0.335,1.03-0.604,1.595-0.797
			c0.499-0.254,1.034-0.431,1.587-0.526c2.905-0.536,5.892,0.35,8.035,2.383c0.353,0.44,0.707,0.879,1.06,1.323
			c0.331,0.492,0.598,1.026,0.793,1.586c0.256,0.5,0.433,1.036,0.526,1.59c0.107,0.583,0.168,1.175,0.181,1.768
			c-0.014,1.153-0.254,2.293-0.707,3.353c-0.427,1.08-1.056,2.069-1.854,2.914c-0.44,0.353-0.888,0.707-1.414,1.056
			c-0.45,0.351-0.958,0.62-1.5,0.797c-0.528,0.266-1.096,0.445-1.681,0.53C336.568,79.373,336.009,79.432,335.448,79.448z"/>
		<path style="fill:#7F6E5D;" d="M300.138,44.138c-0.593-0.016-1.183-0.075-1.767-0.177c-0.552-0.098-1.086-0.277-1.586-0.53
			c-0.565-0.194-1.101-0.462-1.595-0.797c-0.44-0.35-0.879-0.703-1.319-1.056c-0.378-0.421-0.732-0.862-1.06-1.323
			c-0.336-0.492-0.603-1.027-0.793-1.591c-0.255-0.501-0.435-1.037-0.535-1.59c-0.1-0.583-0.157-1.172-0.172-1.763
			c-0.033-1.159,0.21-2.31,0.707-3.358c0.447-1.068,1.074-2.053,1.853-2.91c3.539-3.267,8.995-3.267,12.534,0
			c0.779,0.857,1.406,1.841,1.854,2.909c0.453,1.062,0.693,2.203,0.707,3.358c-0.013,0.592-0.074,1.181-0.181,1.763
			c-0.093,0.554-0.27,1.09-0.526,1.59c-0.194,0.562-0.461,1.097-0.793,1.591c-0.353,0.44-0.707,0.879-1.06,1.323
			c-0.44,0.353-0.888,0.707-1.414,1.056c-0.45,0.351-0.958,0.62-1.5,0.797c-0.528,0.266-1.096,0.445-1.681,0.53
			C301.258,44.063,300.699,44.122,300.138,44.138z"/>
		<path style="fill:#7F6E5D;" d="M300.138,79.448c-0.593-0.016-1.183-0.075-1.767-0.177c-0.552-0.098-1.086-0.277-1.586-0.53
			c-0.565-0.194-1.101-0.462-1.595-0.797c-0.44-0.35-0.879-0.703-1.319-1.056c-1.614-1.691-2.529-3.93-2.56-6.268
			c-0.033-1.159,0.21-2.31,0.707-3.358c0.426-1.08,1.055-2.067,1.853-2.91c3.539-3.267,8.995-3.267,12.534,0
			c0.799,0.842,1.428,1.83,1.854,2.909c0.453,1.062,0.693,2.203,0.707,3.358c-0.035,2.337-0.949,4.574-2.56,6.268
			c-0.44,0.353-0.888,0.707-1.414,1.056c-0.45,0.351-0.958,0.62-1.5,0.797c-0.528,0.266-1.096,0.445-1.681,0.53
			C301.258,79.373,300.699,79.432,300.138,79.448z"/>
		<path style="fill:#7F6E5D;" d="M300.138,114.759c-2.348,0.023-4.607-0.9-6.267-2.56c-1.66-1.66-2.583-3.919-2.56-6.267
			c-0.033-1.159,0.21-2.31,0.707-3.358c0.426-1.08,1.055-2.067,1.854-2.909c3.539-3.267,8.995-3.267,12.534,0
			c0.799,0.842,1.428,1.83,1.854,2.909c0.453,1.062,0.693,2.203,0.706,3.358c0.023,2.348-0.9,4.607-2.56,6.267
			C304.745,113.859,302.486,114.781,300.138,114.759z"/>
	</g>
</g>
<g>
</g>
<g>
</g>
<g>
</g>
<g>
</g>
<g>
</g>
<g>
</g>
<g>
</g>
<g>
</g>
<g>
</g>
<g>
</g>
<g>
</g>
<g>
</g>
<g>
</g>
<g>
</g>
<g>
</g>
</svg>
